<?xml version="1.0" encoding="UTF-8" standalone="no"?>
<svg
   xmlns:dc="http://purl.org/dc/elements/1.1/"
   xmlns:cc="http://creativecommons.org/ns#"
   xmlns:rdf="http://www.w3.org/1999/02/22-rdf-syntax-ns#"
   xmlns:svg="http://www.w3.org/2000/svg"
   xmlns="http://www.w3.org/2000/svg"
   xmlns:sodipodi="http://sodipodi.sourceforge.net/DTD/sodipodi-0.dtd"
   xmlns:inkscape="http://www.inkscape.org/namespaces/inkscape"
   version="1.1"
   x="0"
   y="0"
   width="510"
   height="785"
   viewBox="0, 0, 510, 785"
   id="svg97"
   sodipodi:docname="logo.svg"
   inkscape:export-filename="/var/www/htdocs/sitetest/favicon96.png"
   inkscape:export-xdpi="11.885994"
   inkscape:export-ydpi="11.885994"
   inkscape:version="0.92.1 r">
  <metadata
     id="metadata103">
    <rdf:RDF>
      <cc:Work
         rdf:about="">
        <dc:format>image/svg+xml</dc:format>
        <dc:type
           rdf:resource="http://purl.org/dc/dcmitype/StillImage" />
      </cc:Work>
    </rdf:RDF>
  </metadata>
  <defs
     id="defs101" />
  <sodipodi:namedview
     pagecolor="#ffffff"
     bordercolor="#666666"
     borderopacity="1"
     objecttolerance="10"
     gridtolerance="10"
     guidetolerance="10"
     inkscape:pageopacity="0"
     inkscape:pageshadow="2"
     inkscape:window-width="1596"
     inkscape:window-height="877"
     id="namedview99"
     showgrid="false"
     inkscape:zoom="0.30063694"
     inkscape:cx="-505.05297"
     inkscape:cy="392.5"
     inkscape:window-x="0"
     inkscape:window-y="19"
     inkscape:window-maximized="0"
     inkscape:current-layer="svg97" />
  <g
     id="Layer_1">
    <g
       id="g8">
      <path
         d="M371.79,57.795 C347.525,3.44 170.22,-35.39 81.055,94.465 C24.69,176.53 35.025,291.225 35.025,291.225 L60.995,381.34 L52.895,381.34 C52.895,381.34 69.075,490.705 181.025,547.655 L338.265,544.415 C441.8,477.765 453.905,403.19 458.91,385.29 L459.57,384.965 L471.44,288.05 C486.755,68.69 371.79,57.795 371.79,57.795"
         fill="#7D4D3F"
         id="path2" />
      <path
         d="M50.95,379.4 C50.95,379.4 60.66,477.115 180.59,547.005 M457.77,381.34 C457.77,381.34 452.81,472.81 336.12,544.415"
         fill-opacity="0"
         stroke="#1A1919"
         stroke-width="7"
         stroke-linecap="round"
         stroke-linejoin="round"
         id="path4" />
      <path
         d="M94.75,122.505 C219.845,-45.74 454.53,92.31 470.925,194.985 C456.26,78.5 371.79,57.795 371.79,57.795 C347.525,3.44 170.22,-35.39 81.055,94.465 C24.69,176.53 35.025,291.225 35.025,291.225 C35.025,291.225 50.315,299.065 49.88,299.39 C44.695,247.615 59.28,170.2 94.75,122.505"
         fill="#E0B79F"
         id="path6" />
    </g>
    <path
       d="M87.205,96.885 C92.375,119.645 245.845,129.715 284.72,119.795 C306.42,114.275 298.555,107.79 283.63,107.325 C142.285,103.025 128.465,64.04 128.465,64.04 L87.205,96.885"
       fill="#E0B79F"
       id="path10" />
    <path
       d="M36.155,295.17 C36.155,295.17 24.69,176.53 81.055,94.465 C170.22,-35.39 347.525,3.44 371.79,57.795 C371.79,57.795 486.38,71.7 471.07,291.07"
       fill-opacity="0"
       stroke="#1A1919"
       stroke-width="7"
       stroke-linecap="round"
       stroke-linejoin="round"
       id="path12" />
    <path
       d="M365.455,620.5 L323.735,539.405 C323.735,539.405 276.03,529.82 271.445,530.655 C266.86,531.49 222.28,530.66 222.28,530.66 L178.735,538.78 L131.02,620.78 L119.88,685.66 L134.305,782.315 L374.885,781.495 L391.13,680.66 L365.455,620.5"
       fill="#E98A98"
       id="path14" />
    <path
       d="M281.965,530.45 L280.465,513.935 L281.655,499.31 L225.73,502.645 L225.73,513.935 L224.88,531.595 L193.215,536.905 L189.045,573.365 C189.045,573.365 210.5,592.74 250.715,592.74 C290.93,592.74 319.88,570.24 319.88,570.24 L309.88,535.66 L281.965,530.45"
       fill="#F8D4B3"
       id="path16" />
    <path
       d="M225.73,506.715 L280.465,506.715 L281.755,531.595 L298.005,533.47 C295.505,540.97 281.13,556.005 238.005,556.595 C215.19,556.905 199.88,545.66 204.045,534.41 L225.13,531.405 L225.73,506.715"
       fill="#CF957E"
       id="path18" />
    <path
       d="M121.13,694.41 C121.13,694.41 126.375,733.7 133.635,780.66 M388.215,691.075 C388.215,691.075 381.965,738.995 374.885,781.495 M224.535,536.185 L226.015,515.565 M281.655,536.185 L280.805,515.77 M194.05,535.655 L224.255,532.115 M281.55,530.655 L308.635,535.24 M188.215,572.745 C188.215,572.745 246.755,619.405 321.545,568.16"
       fill-opacity="0"
       stroke="#1A1919"
       stroke-width="7"
       stroke-linecap="round"
       stroke-linejoin="round"
       id="path20" />
    <path
       d="M80.08,300.13 C80.08,300.13 69.625,279.84 49.95,286 C8.92,298.805 22.09,387.74 89.89,395.42"
       fill="#F8D2B5"
       id="path22" />
    <path
       d="M429.86,300.46 C429.86,300.46 440.315,280.19 459.98,286.33 C501.005,299.155 490.11,388.09 421.25,395.755"
       fill="#F8D2B5"
       id="path24" />
    <path
       d="M428.175,280.975 C429.015,315.355 428.51,370.215 413.64,414.73 C385.815,498.025 297.025,516.905 254.88,516.905 C212.73,516.905 123.955,498.025 96.13,414.73 C80.4,367.68 79.865,309.045 81.895,275.315 C81.895,275.315 81.06,249.34 113.72,226.05 C145.07,203.695 247.53,191.135 281.43,175.57 C340.665,148.385 347.33,116.045 347.33,116.045 C347.33,116.045 425.625,176.865 428.175,280.975"
       fill="#F8D2B5"
       id="path26" />
    <path
       d="M84.905,371.86 L81.89,336.915 C81.89,336.915 73.385,315.235 60.32,311.895 C43.495,307.575 43.16,336.53 54.71,352.87 C72.405,377.895 84.905,371.86 84.905,371.86"
       fill="#CF957E"
       id="path28" />
    <path
       d="M427.435,371.86 L430.46,336.915 C430.46,336.915 438.97,315.235 452.025,311.895 C468.855,307.575 469.195,336.53 457.645,352.87 C439.955,377.895 427.435,371.86 427.435,371.86"
       fill="#CF957E"
       id="path30" />
    <path
       d="M80.08,300.13 C80.08,300.13 69.625,279.84 49.95,286 C8.92,298.805 22.09,387.74 89.89,395.42 M50.695,309.965 C50.695,309.965 64.215,300.74 80.805,337.015 M428.175,280.975 C429.015,315.355 428.51,370.215 413.64,414.73 C385.815,498.025 297.025,516.905 254.88,516.905 C212.73,516.905 123.955,498.025 96.13,414.73 C80.4,367.68 79.865,309.045 81.895,275.315 C81.895,275.315 81.06,249.34 113.72,226.05 C145.07,203.695 247.53,191.135 281.43,175.57 C340.665,148.385 347.33,116.045 347.33,116.045 C347.33,116.045 425.625,176.865 428.175,280.975 z M429.86,300.46 C429.86,300.46 440.315,280.19 459.98,286.33 C501.005,299.155 490.11,388.09 421.25,395.755 M458.855,310.3 C458.855,310.3 445.33,301.075 428.735,337.355"
       fill-opacity="0"
       stroke="#1A1919"
       stroke-width="7"
       stroke-linecap="round"
       stroke-linejoin="round"
       id="path32" />
    <path
       d="M253.67,490.315 C206.465,490.315 203.1,395.735 202.55,381.73 C202.55,381.73 252.74,399.56 302.925,381.73 C302.355,395.735 298.975,490.315 251.8,490.315"
       fill="#DE6D6E"
       id="path34" />
    <path
       d="M152.62,351.62 C152.62,359.535 139.27,365.955 122.81,365.955 C106.34,365.955 92.98,359.535 92.98,351.62 C92.98,343.7 106.34,337.27 122.81,337.27 C139.27,337.27 152.62,343.7 152.62,351.62"
       fill="#EB969C"
       id="path36" />
    <path
       d="M412.26,351.62 C412.26,359.535 398.9,365.955 382.43,365.955 C365.955,365.955 352.615,359.535 352.615,351.62 C352.615,343.7 365.955,337.27 382.43,337.27 C398.9,337.27 412.26,343.7 412.26,351.62"
       fill="#EB969C"
       id="path38" />
    <path
       d="M251.8,405.765 C269.96,405.765 286.26,411.17 297.625,429.25 C301.93,407.835 302.675,387.635 302.925,381.73 C252.74,399.56 202.55,381.73 202.55,381.73 C202.765,387.435 203.465,406.435 207.37,426.99 C218.66,410.21 234.385,405.765 251.8,405.765"
       fill="#AC514C"
       id="path40" />
    <path
       d="M207.24,300.49 C207.24,327.68 191.52,342.4 172.125,342.4 C152.745,342.4 137.01,327.68 137.01,300.49 C137.01,273.315 152.745,251.27 172.125,251.27 C191.52,251.27 207.24,273.315 207.24,300.49"
       fill="#FFFFFE"
       id="path42" />
    <path
       d="M369.825,300.49 C369.825,327.68 354.105,342.4 334.71,342.4 C315.325,342.4 299.605,327.68 299.605,300.49 C299.605,273.315 315.325,251.27 334.71,251.27 C354.105,251.27 369.825,273.315 369.825,300.49"
       fill="#FFFFFE"
       id="path44" />
    <path
       d="M201.765,303.4 C201.765,320.635 192.075,334.6 180.12,334.6 C168.16,334.6 158.475,320.635 158.475,303.4 C158.475,286.165 168.16,272.195 180.12,272.195 C192.075,272.195 201.765,286.165 201.765,303.4"
       fill="#1A1919"
       id="path46" />
    <path
       d="M304.475,303.4 C304.475,320.635 314.16,334.6 326.12,334.6 C338.07,334.6 347.765,320.635 347.765,303.4 C347.765,286.165 338.07,272.195 326.12,272.195 C314.16,272.195 304.475,286.165 304.475,303.4"
       fill="#1A1919"
       id="path48" />
    <path
       d="M201.38,292.955 C201.38,296.485 198.52,299.34 194.985,299.34 C191.455,299.34 188.595,296.485 188.595,292.955 C188.595,289.415 191.455,286.555 194.985,286.555 C198.52,286.555 201.38,289.415 201.38,292.955"
       fill="#FFFFFE"
       id="path50" />
    <path
       d="M346.105,292.955 C346.105,296.485 343.24,299.34 339.69,299.34 C336.165,299.34 333.295,296.485 333.295,292.955 C333.295,289.415 336.165,286.555 339.69,286.555 C343.24,286.555 346.105,289.415 346.105,292.955"
       fill="#FFFFFE"
       id="path52" />
    <path
       d="M204.255,211.905 C181.965,188.155 139.465,196.49 133.005,228.155 M298.015,211.905 C320.305,188.155 362.805,196.49 369.265,228.155"
       fill-opacity="0"
       stroke="#1A1919"
       stroke-width="7"
       stroke-linecap="round"
       stroke-linejoin="round"
       id="path54" />
    <path
       d="M171.84,262.72 C183.3,262.29 190.62,265.455 197.77,268.05 C191.34,258.695 182.03,252.755 171.635,252.755 C159.91,252.755 149.54,260.295 143.17,271.83 C149.77,266.115 160.355,263.14 171.84,262.72"
       fill="#D2E0EB"
       id="path56" />
    <path
       d="M334.83,262.72 C323.375,262.29 316.045,265.455 308.9,268.05 C315.325,258.695 324.64,252.755 335.03,252.755 C346.765,252.755 357.125,260.295 363.5,271.83 C356.9,266.115 346.315,263.14 334.83,262.72"
       fill="#D2E0EB"
       id="path58" />
    <path
       d="M203.4,271.955 C188.66,238.585 126.94,238.43 135.75,317.18 M302.005,275.2 C314.045,238.665 379.985,235.97 370.895,317.18"
       fill-opacity="0"
       stroke="#1A1919"
       stroke-width="8"
       stroke-linecap="round"
       stroke-linejoin="round"
       id="path60" />
    <g
       id="g66">
      <path
         d="M123.65,289.395 L134.895,296.41 M371.75,296.41 L386.815,289.395 M252.47,360.22 L252.47,350.035 M253.67,490.315 C206.465,490.315 203.1,395.735 202.55,381.73 C202.55,381.73 252.74,399.56 302.925,381.73 C302.355,395.735 298.975,490.315 251.8,490.315"
         fill-opacity="0"
         stroke="#1A1919"
         stroke-width="7"
         stroke-linecap="round"
         stroke-linejoin="round"
         id="path62" />
      <path
         d="M355.615,531.075 L352.38,640.655 C352.38,640.655 390.505,700.03 421.755,731.905 C441.075,751.615 483.005,776.28 498.63,747.325 C512.735,721.19 501.415,693.885 494.465,676.495 C477.8,634.825 432.65,558.34 407.38,537.745 C384.88,519.41 356.965,530.66 356.965,530.66"
         fill="#E98A98"
         id="path64" />
    </g>
    <path
       d="M362.985,635.675 C362.985,635.675 326.165,590.16 316.665,555.325 C307.015,519.94 346.755,467.055 346.755,467.055 C346.755,467.055 332.105,413.615 330.52,402.135 C328.725,389.175 344.77,371.665 347.545,389.475 C349.975,405.12 378.02,474.185 379.205,481.3 C380.395,488.43 359.42,524.845 356.25,535.14 C353.08,545.425 379.605,574.325 379.605,574.325 C379.605,574.325 389.9,592.14 362.985,635.675"
       fill="#F8D2B5"
       id="path68" />
    <g
       id="g74">
      <path
         d="M319.045,564.425 C286.55,517.22 320.545,473.725 325.3,466.595 C330.045,459.47 338.43,437.435 338.43,437.435 L343.22,380.785 C345.59,374.845 360.635,369.7 361.03,383.155 C361.42,396.615 374.86,469.035 374.86,469.035 L341.9,531.175 L319.045,564.425"
         fill="#F8D2B5"
         id="path70" />
      <path
         d="M153.21,531.075 L146.965,616.49 L154.05,641.07 C154.05,641.07 112.38,717.53 79.88,742.53 C58.005,759.36 23.115,771.49 10.195,747.325 C-3.81,721.135 7.405,693.885 14.36,676.495 C31.025,634.825 76.17,558.34 101.445,537.745 C123.945,519.41 151.86,530.66 151.86,530.66"
         fill="#E98A98"
         id="path72" />
    </g>
    <path
       d="M145.835,635.93 C145.835,635.93 182.65,590.415 192.15,555.58 C201.795,520.19 162.065,467.31 162.065,467.31 C162.065,467.31 176.715,413.87 178.295,402.385 C180.09,389.425 164.05,371.91 161.275,389.725 C158.84,405.375 130.795,474.43 129.61,481.555 C128.425,488.685 149.4,525.1 152.565,535.39 C155.735,545.675 129.215,574.575 129.215,574.575 C129.215,574.575 118.92,592.395 145.835,635.93"
       fill="#F8D2B5"
       id="path76" />
    <g
       id="g82">
      <path
         d="M189.77,564.68 C225.795,515.995 189.77,472.85 185.025,465.725 C180.275,458.595 170.385,437.69 170.385,437.69 L163.94,381.07 C161.565,375.135 146.52,369.99 146.13,383.445 C145.735,396.9 133.96,469.29 133.96,469.29 L166.915,531.43 L189.77,564.68"
         fill="#F8D2B5"
         id="path78" />
      <path
         d="M124.885,585.24 C124.885,585.24 139.465,557.74 124.685,565.185 C114.585,570.27 42.22,653.75 42.22,653.75 C42.22,653.75 34.72,660.43 32.93,663.36 C32.93,663.36 17.8,666.905 9.845,687.41 C5.74,697.98 -3.73,730.645 14.875,754.275 C14.875,754.275 7.255,699.575 26.94,684.895 C56.6,662.775 124.885,585.24 124.885,585.24"
         fill="#F4C9D1"
         id="path80" />
    </g>
    <path
       d="M338.735,439.345 L346.755,467.055 C346.755,467.055 323.295,505.84 319.73,521.88 C316.17,537.905 317.36,559.28 317.36,559.28 C317.36,559.28 300.14,536.125 302.515,518.91 C304.89,501.685 309.645,482.69 319.14,472 C328.64,461.31 338.735,439.345 338.735,439.345"
       fill="#DAB08F"
       id="path84" />
    <path
       d="M171.17,439.595 L163.16,467.31 C163.16,467.31 186.61,506.095 190.17,522.125 C193.735,538.155 192.55,559.535 192.55,559.535 C192.55,559.535 206.42,536.63 204.05,519.405 C201.67,502.185 197.925,485.415 188.425,474.72 C178.92,464.035 171.17,439.595 171.17,439.595"
       fill="#DAB08F"
       id="path86" />
    <path
       d="M149.41,530.675 C149.41,530.675 123.305,519.525 99.33,540.345 C55.395,578.505 17.45,669.795 17.45,669.795 C17.45,669.795 19.325,672.585 21.96,671.675 C25.57,670.425 30.56,662.655 31.35,662.655 C32.705,662.655 66.175,584.22 104.235,550.7 C114.505,541.655 126.935,532.545 150.035,541.6 C154.83,540.465 149.41,530.675 149.41,530.675"
       fill="#F4C9D1"
       id="path88" />
    <path
       d="M381.13,563.99 L381.45,575.975 C381.45,575.975 467.435,666.27 469.675,656.43 L443.32,627 L381.13,563.99"
       fill="#F4C9D1"
       id="path90" />
    <path
       d="M355.805,530.735 C355.805,530.735 364.14,526.975 376.47,527.21 C388.775,527.445 403.49,531.915 409.985,540.03 C422.485,555.655 456.39,605.2 456.39,605.2 C456.39,605.2 442.595,590.6 434.3,580.535 C427.105,571.8 409.515,550.115 393.205,540.31 C384.04,534.8 364.81,535.86 356.795,540.105 L355.805,530.735"
       fill="#F4C9D1"
       id="path92" />
    <path
       d="M145.84,635.93 C145.84,635.93 182.65,590.415 192.155,555.58 C201.8,520.19 162.075,467.31 162.075,467.31 C162.075,467.31 176.715,413.87 178.305,402.385 C180.095,389.425 164.055,371.91 161.28,389.725 C158.845,405.375 130.805,474.43 129.615,481.555 C128.425,488.685 149.405,525.1 152.575,535.39 C155.735,545.675 129.215,574.575 129.215,574.575 C129.215,574.575 118.93,592.395 145.84,635.93 z M133.965,469.29 C133.965,469.29 145.74,396.9 146.135,383.445 C146.53,369.99 161.565,375.135 163.945,381.07 M170.04,442.785 C170.04,442.785 177.95,460.2 182.7,467.325 C187.45,474.45 224.76,518.22 188.735,566.905 M149.41,530.675 C149.41,530.675 123.95,519.41 101.45,537.745 C76.175,558.34 31.03,634.825 14.365,676.495 C7.41,693.885 -3.805,721.135 10.2,747.325 C23.12,771.49 52.59,763.32 74.465,746.49 C106.965,721.49 154.255,642.53 154.255,642.53 L151.13,629.405 M23.95,670.795 C48.435,644.99 119.86,569.005 123.115,566.075 C127.28,562.325 130.615,567.325 130.615,567.325 M486.15,671.5 C461.67,645.695 389.18,569.005 385.925,566.075 C381.76,562.325 378.425,567.325 378.425,567.325 M362.985,635.675 C362.985,635.675 326.165,590.16 316.665,555.325 C307.015,519.94 346.755,467.055 346.755,467.055 C346.755,467.055 332.105,413.615 330.52,402.135 C328.725,389.175 344.77,371.665 347.545,389.475 C349.975,405.12 378.02,474.185 379.205,481.3 C380.395,488.43 359.42,524.845 356.25,535.14 C353.08,545.425 379.605,574.325 379.605,574.325 C379.605,574.325 389.9,592.14 362.985,635.675 z M374.86,469.035 C374.86,469.035 361.42,396.615 361.03,383.155 C360.635,369.7 345.59,374.845 343.22,380.785 M339.68,439.52 C339.68,439.52 329.79,460.435 325.045,467.555 C320.295,474.685 284.27,517.83 320.295,566.51 M300.3,532.845 L286.55,530.66 M359.365,530.66 C359.365,530.66 384.88,519.41 407.38,537.745 C432.65,558.34 477.8,634.825 494.465,676.495 C501.415,693.885 512.63,721.135 498.63,747.325 C485.71,771.49 459.67,761.65 437.795,744.82 C405.295,719.82 350.92,638.99 350.92,638.99 L353.005,623.155"
       fill-opacity="0"
       stroke="#1A1919"
       stroke-width="7"
       stroke-linecap="round"
       stroke-linejoin="round"
       id="path94" />
  </g>
</svg>
